…
2. How many genera and species are represented in the data? What are the total number of observations? Which species is most/ least frequently sampled in the study?

```r
deserts %>% 
  count(genus, species, sort=T) #sort=T)
```

```
## # A tibble: 48 × 3
##    genus           species          n
##    <chr>           <chr>        <int>
##  1 Dipodomys       merriami     10596
##  2 Chaetodipus     penicillatus  3123
##  3 Dipodomys       ordii         3027
##  4 Chaetodipus     baileyi       2891
##  5 Reithrodontomys megalotis     2609
##  6 Dipodomys       spectabilis   2504
##  7 Onychomys       torridus      2249
##  8 Perognathus     flavus        1597
##  9 Peromyscus      eremicus      1299
## 10 Neotoma         albigula      1252
## # … with 38 more rows
```


```r
deserts %>% 
  count(species, sort=T)
```

```
## # A tibble: 40 × 2
##    species          n
##    <chr>        <int>
##  1 merriami     10596
##  2 penicillatus  3123
##  3 ordii         3027
##  4 baileyi       2891
##  5 megalotis     2609
##  6 spectabilis   2504
##  7 torridus      2249
##  8 flavus        1597
##  9 eremicus      1299
## 10 albigula      1252
## # … with 30 more rows
```
…
7. [Dipodomys merriami](https://en.wikipedia.org/wiki/Merriam's_kangaroo_rat) is the most frequently sampled animal in the study. How have the number of observations of this species changed over the years included in the study?

```r
deserts %>% 
  filter(species=="merriami") %>% 
  group_by(year) %>% 
  summarize(n_samples=n())
```

```
## # A tibble: 26 × 2
##     year n_samples
##    <dbl>     <int>
##  1  1977       264
##  2  1978       389
##  3  1979       209
##  4  1980       493
##  5  1981       559
##  6  1982       609
##  7  1983       528
##  8  1984       396
##  9  1985       667
## 10  1986       406
## # … with 16 more rows
```
…
9. Which two species have, on average, the highest weight? Once you have identified them, make a new column that is a ratio of `weight` to `hindfoot_length`. Make a plot that shows the range of this new ratio and fill by sex.

```r
deserts %>% 
  filter(weight!="NA") %>% 
  group_by(species) %>% 
  summarize(mean_weight=mean(weight)) %>% 
  arrange(desc(mean_weight))
```

```
## # A tibble: 22 × 2
##    species      mean_weight
##    <chr>              <dbl>
##  1 albigula           159. 
##  2 spectabilis        120. 
##  3 spilosoma           93.5
##  4 hispidus            65.6
##  5 fulviventer         58.9
##  6 ochrognathus        55.4
##  7 ordii               48.9
##  8 merriami            43.2
##  9 baileyi             31.7
## 10 leucogaster         31.6
## # … with 12 more rows
```

```r
weight_foot_ratio <- deserts %>% 
  filter(species=="albigula" | species=="spectabilis") %>% 
  filter(weight!="NA" & hindfoot_length!="NA") %>% 
  mutate(ratio=weight/hindfoot_length) %>% 
  select(species_id, sex, weight, hindfoot_length, ratio)
weight_foot_ratio
```

```
## # A tibble: 3,072 × 5
##    species_id sex   weight hindfoot_length ratio
##    <chr>      <chr>  <dbl>           <dbl> <dbl>
##  1 DS         F        117              50  2.34
##  2 DS         F        121              51  2.37
##  3 DS         M        115              51  2.25
##  4 DS         F        120              48  2.5 
##  5 DS         F        118              48  2.46
##  6 DS         F        126              52  2.42
##  7 DS         M        132              50  2.64
##  8 DS         F        122              53  2.30
##  9 DS         F        107              48  2.23
## 10 DS         F        115              50  2.3 
## # … with 3,062 more rows
```
…
