…
```r
population_longer <- population_total %>% 
  pivot_longer(-country,
               names_to = "years",
               values_to = "population")
population_longer
```

```
## # A tibble: 58,695 × 3
##    country     years population
##    <chr>       <chr>      <dbl>
##  1 Afghanistan 1800     3280000
##  2 Afghanistan 1801     3280000
##  3 Afghanistan 1802     3280000
##  4 Afghanistan 1803     3280000
##  5 Afghanistan 1804     3280000
##  6 Afghanistan 1805     3280000
##  7 Afghanistan 1806     3280000
##  8 Afghanistan 1807     3280000
##  9 Afghanistan 1808     3280000
## 10 Afghanistan 1809     3280000
## # … with 58,685 more rows
```
…
```r
income_longer <- income_per_person %>% 
  pivot_longer(-country,
               names_to = "year",
               values_to = "income")
income_longer
```

```
## # A tibble: 46,513 × 3
##    country     year  income
##    <chr>       <chr>  <dbl>
##  1 Afghanistan 1800     603
##  2 Afghanistan 1801     603
##  3 Afghanistan 1802     603
##  4 Afghanistan 1803     603
##  5 Afghanistan 1804     603
##  6 Afghanistan 1805     603
##  7 Afghanistan 1806     603
##  8 Afghanistan 1807     603
##  9 Afghanistan 1808     603
## 10 Afghanistan 1809     603
## # … with 46,503 more rows
```
…
```r
life_expectancy_long <- life_expectancy %>% 
  pivot_longer(-country,
               names_to = "year",
               values_to = "life_expectancy")
life_expectancy_long
```

```
## # A tibble: 56,287 × 3
##    country     year  life_expectancy
##    <chr>       <chr>           <dbl>
##  1 Afghanistan 1800             28.2
##  2 Afghanistan 1801             28.2
##  3 Afghanistan 1802             28.2
##  4 Afghanistan 1803             28.2
##  5 Afghanistan 1804             28.2
##  6 Afghanistan 1805             28.2
##  7 Afghanistan 1806             28.1
##  8 Afghanistan 1807             28.1
##  9 Afghanistan 1808             28.1
## 10 Afghanistan 1809             28.1
## # … with 56,277 more rows
```
…
