…
```r
naniar::miss_var_summary(homerange)
```

```
## # A tibble: 24 × 3
##    variable                   n_miss pct_miss
##    <chr>                       <int>    <dbl>
##  1 alternative.mass.reference    561   98.6  
##  2 preymass                      502   88.2  
##  3 log10.preymass                502   88.2  
##  4 PPMR                          502   88.2  
##  5 prey.size.reference           502   88.2  
##  6 N                             375   65.9  
##  7 primarymethod                   1    0.176
##  8 taxon                           0    0    
##  9 common.name                     0    0    
## 10 class                           0    0    
## # … with 14 more rows
```
…
## Practice
1. Filter the `homerange` data to include `mammals` only.

```r
mammalia <- homerange %>% 
  filter(class=="mammalia")
mammalia
```

```
## # A tibble: 238 × 24
##    taxon   common.name   class  order  family  genus species primarymethod N    
##    <chr>   <chr>         <chr>  <chr>  <chr>   <chr> <chr>   <chr>         <chr>
##  1 mammals giant golden… mamma… afros… chryso… chry… trevel… telemetry*    <NA> 
##  2 mammals Grant's gold… mamma… afros… chryso… erem… granti  telemetry*    <NA> 
##  3 mammals pronghorn     mamma… artio… antilo… anti… americ… telemetry*    <NA> 
##  4 mammals impala        mamma… artio… bovidae aepy… melamp… telemetry*    <NA> 
##  5 mammals hartebeest    mamma… artio… bovidae alce… busela… telemetry*    <NA> 
##  6 mammals barbary sheep mamma… artio… bovidae ammo… lervia  telemetry*    <NA> 
##  7 mammals American bis… mamma… artio… bovidae bison bison   telemetry*    <NA> 
##  8 mammals European bis… mamma… artio… bovidae bison bonasus telemetry*    <NA> 
##  9 mammals goat          mamma… artio… bovidae capra hircus  telemetry*    <NA> 
## 10 mammals Spanish ibex  mamma… artio… bovidae capra pyrena… telemetry*    <NA> 
## # … with 228 more rows, and 15 more variables: mean.mass.g <dbl>,
## #   log10.mass <dbl>, alternative.mass.reference <chr>, mean.hra.m2 <dbl>,
## #   log10.hra <dbl>, hra.reference <chr>, realm <chr>, thermoregulation <chr>,
## #   locomotion <chr>, trophic.guild <chr>, dimension <dbl>, preymass <dbl>,
## #   log10.preymass <dbl>, PPMR <dbl>, prey.size.reference <chr>
```
…
