…
```r
most_colleges <- colleges %>% 
  count(CITY) %>% 
  arrange(desc(n))
most_colleges
```

```
## # A tibble: 161 × 2
##    CITY              n
##    <chr>         <int>
##  1 Los Angeles      24
##  2 San Diego        18
##  3 San Francisco    15
##  4 Sacramento       10
##  5 Berkeley          9
##  6 Oakland           9
##  7 Claremont         7
##  8 Pasadena          6
##  9 Fresno            5
## 10 Irvine            5
## # … with 151 more rows
```
…
```r
high_cost <- colleges %>% 
  select(CITY, COSTT4_A, INSTNM) %>% 
  arrange(desc(COSTT4_A))
high_cost
```

```
## # A tibble: 341 × 3
##    CITY          COSTT4_A INSTNM                                       
##    <chr>            <dbl> <chr>                                        
##  1 Claremont        69355 Harvey Mudd College                          
##  2 Los Angeles      67225 Southern California Institute of Architecture
##  3 Los Angeles      67064 University of Southern California            
##  4 Los Angeles      67046 Occidental College                           
##  5 Claremont        66325 Claremont McKenna College                    
##  6 Malibu           66152 Pepperdine University                        
##  7 Claremont        66060 Scripps College                              
##  8 Claremont        65880 Pitzer College                               
##  9 San Francisco    65453 San Francisco Art Institute                  
## 10 Claremont        64870 Pomona College                               
## # … with 331 more rows
```
…
