…
```
## 
## ℹ Use `spec()` to retrieve the full column specification for this data.
## ℹ Specify the column types or set `show_col_types = FALSE` to quiet this message.
```

## Data tidy
1. Some of the names used in the `superhero_info` data are problematic so you should rename them here.  

```r
janitor::clean_names(superhero_info)
```

```
## # A tibble: 734 × 10
##    name  gender eye_color race  hair_color height publisher skin_color alignment
##    <chr> <chr>  <chr>     <chr> <chr>       <dbl> <chr>     <chr>      <chr>    
##  1 A-Bo… Male   yellow    Human No Hair       203 Marvel C… <NA>       good     
##  2 Abe … Male   blue      Icth… No Hair       191 Dark Hor… blue       good     
##  3 Abin… Male   blue      Unga… No Hair       185 DC Comics red        good     
##  4 Abom… Male   green     Huma… No Hair       203 Marvel C… <NA>       bad      
##  5 Abra… Male   blue      Cosm… Black          NA Marvel C… <NA>       bad      
##  6 Abso… Male   blue      Human No Hair       193 Marvel C… <NA>       bad      
##  7 Adam… Male   blue      <NA>  Blond          NA NBC - He… <NA>       good     
##  8 Adam… Male   blue      Human Blond         185 DC Comics <NA>       good     
##  9 Agen… Female blue      <NA>  Blond         173 Marvel C… <NA>       good     
## 10 Agen… Male   brown     Human Brown         178 Marvel C… <NA>       good     
## # … with 724 more rows, and 1 more variable: weight <dbl>
```
…
```
##  [1] "name"       "gender"     "eye_color"  "race"       "hair_color"
##  [6] "height"     "publisher"  "skin_color" "alignment"  "weight"
```

2. Notice that we have some neutral superheros! Who are they?

```r
neutral_heros <- select(superhero_info, "name")
neutral_heros
```

```
## # A tibble: 734 × 1
##    name         
##    <chr>        
##  1 A-Bomb       
##  2 Abe Sapien   
##  3 Abin Sur     
##  4 Abomination  
##  5 Abraxas      
##  6 Absorbing Man
##  7 Adam Monroe  
##  8 Adam Strange 
##  9 Agent 13     
## 10 Agent Bob    
## # … with 724 more rows
```

## `superhero_info`
3. Let's say we are only interested in the variables name, alignment, and "race". How would you isolate these variables from `superhero_info`?

```r
some_heros <- select(superhero_info, "name", "alignment", "race")
some_heros
```

```
## # A tibble: 734 × 3
##    name          alignment race             
##    <chr>         <chr>     <chr>            
##  1 A-Bomb        good      Human            
##  2 Abe Sapien    good      Icthyo Sapien    
##  3 Abin Sur      good      Ungaran          
##  4 Abomination   bad       Human / Radiation
##  5 Abraxas       bad       Cosmic Entity    
##  6 Absorbing Man bad       Human            
##  7 Adam Monroe   good      <NA>             
##  8 Adam Strange  good      Human            
##  9 Agent 13      good      <NA>             
## 10 Agent Bob     good      Human            
## # … with 724 more rows
```

## Not Human
4. List all of the superheros that are not human.

```r
not_human_heros <- filter(superhero_info, race != "Human")
not_human_heros
```

```
## # A tibble: 222 × 10
##    name  gender eye_color race  hair_color height publisher skin_color alignment
##    <chr> <chr>  <chr>     <chr> <chr>       <dbl> <chr>     <chr>      <chr>    
##  1 Abe … Male   blue      Icth… No Hair       191 Dark Hor… blue       good     
##  2 Abin… Male   blue      Unga… No Hair       185 DC Comics red        good     
##  3 Abom… Male   green     Huma… No Hair       203 Marvel C… <NA>       bad      
##  4 Abra… Male   blue      Cosm… Black          NA Marvel C… <NA>       bad      
##  5 Ajax  Male   brown     Cybo… Black         193 Marvel C… <NA>       bad      
##  6 Alien Male   <NA>      Xeno… No Hair       244 Dark Hor… black      bad      
##  7 Amazo Male   red       Andr… <NA>          257 DC Comics <NA>       bad      
##  8 Angel Male   <NA>      Vamp… <NA>           NA Dark Hor… <NA>       good     
##  9 Ange… Female yellow    Muta… Black         165 Marvel C… <NA>       good     
## 10 Anti… Male   yellow    God … No Hair        61 DC Comics <NA>       bad      
## # … with 212 more rows, and 1 more variable: weight <dbl>
```

## Good and Evil
5. Let's make two different data frames, one focused on the "good guys" and another focused on the "bad guys".

```r
good_guys <- filter(superhero_info, alignment == "good")
good_guys
```

```
## # A tibble: 496 × 10
##    name  gender eye_color race  hair_color height publisher skin_color alignment
##    <chr> <chr>  <chr>     <chr> <chr>       <dbl> <chr>     <chr>      <chr>    
##  1 A-Bo… Male   yellow    Human No Hair       203 Marvel C… <NA>       good     
##  2 Abe … Male   blue      Icth… No Hair       191 Dark Hor… blue       good     
##  3 Abin… Male   blue      Unga… No Hair       185 DC Comics red        good     
##  4 Adam… Male   blue      <NA>  Blond          NA NBC - He… <NA>       good     
##  5 Adam… Male   blue      Human Blond         185 DC Comics <NA>       good     
##  6 Agen… Female blue      <NA>  Blond         173 Marvel C… <NA>       good     
##  7 Agen… Male   brown     Human Brown         178 Marvel C… <NA>       good     
##  8 Agen… Male   <NA>      <NA>  <NA>          191 Marvel C… <NA>       good     
##  9 Alan… Male   blue      <NA>  Blond         180 DC Comics <NA>       good     
## 10 Alex… Male   <NA>      <NA>  <NA>           NA NBC - He… <NA>       good     
## # … with 486 more rows, and 1 more variable: weight <dbl>
```

```r
bad_guys <- filter(superhero_info, alignment == "bad")
bad_guys
```

```
## # A tibble: 207 × 10
##    name  gender eye_color race  hair_color height publisher skin_color alignment
##    <chr> <chr>  <chr>     <chr> <chr>       <dbl> <chr>     <chr>      <chr>    
##  1 Abom… Male   green     Huma… No Hair       203 Marvel C… <NA>       bad      
##  2 Abra… Male   blue      Cosm… Black          NA Marvel C… <NA>       bad      
##  3 Abso… Male   blue      Human No Hair       193 Marvel C… <NA>       bad      
##  4 Air-… Male   blue      <NA>  White         188 Marvel C… <NA>       bad      
##  5 Ajax  Male   brown     Cybo… Black         193 Marvel C… <NA>       bad      
##  6 Alex… Male   <NA>      Human <NA>           NA Wildstorm <NA>       bad      
##  7 Alien Male   <NA>      Xeno… No Hair       244 Dark Hor… black      bad      
##  8 Amazo Male   red       Andr… <NA>          257 DC Comics <NA>       bad      
##  9 Ammo  Male   brown     Human Black         188 Marvel C… <NA>       bad      
## 10 Ange… Female <NA>      <NA>  <NA>           NA Image Co… <NA>       bad      
## # … with 197 more rows, and 1 more variable: weight <dbl>
```
…
8. Among the bad guys, who are the male humans over 200 inches in height?

```r
tall_bad_guys <- filter(bad_guys, height >= 200)
tall_bad_guys
```

```
## # A tibble: 25 × 10
##    name  gender eye_color race  hair_color height publisher skin_color alignment
##    <chr> <chr>  <chr>     <chr> <chr>       <dbl> <chr>     <chr>      <chr>    
##  1 Abom… Male   green     Huma… No Hair       203 Marvel C… <NA>       bad      
##  2 Alien Male   <NA>      Xeno… No Hair       244 Dark Hor… black      bad      
##  3 Amazo Male   red       Andr… <NA>          257 DC Comics <NA>       bad      
##  4 Apoc… Male   red       Muta… Black         213 Marvel C… grey       bad      
##  5 Bane  Male   <NA>      Human <NA>          203 DC Comics <NA>       bad      
##  6 Bloo… Female blue      Human Brown         218 Marvel C… <NA>       bad      
##  7 Dark… Male   red       New … No Hair       267 DC Comics grey       bad      
##  8 Doct… Male   brown     Human Brown         201 Marvel C… <NA>       bad      
##  9 Doct… Male   brown     <NA>  Brown         201 Marvel C… <NA>       bad      
## 10 Doom… Male   red       Alien White         244 DC Comics <NA>       bad      
## # … with 15 more rows, and 1 more variable: weight <dbl>
```
…
```r
big_heros <- filter(superhero_info, between(weight, 200, 300))
big_heros
```

```
## # A tibble: 23 × 10
##    name  gender eye_color race  hair_color height publisher skin_color alignment
##    <chr> <chr>  <chr>     <chr> <chr>       <dbl> <chr>     <chr>      <chr>    
##  1 Ares  Male   brown     <NA>  Brown         185 Marvel C… <NA>       good     
##  2 Beta… Male   <NA>      <NA>  No Hair       201 Marvel C… <NA>       good     
##  3 Blob  Male   brown     <NA>  Brown         178 Marvel C… <NA>       bad      
##  4 Colo… Male   silver    Muta… Black         226 Marvel C… <NA>       good     
##  5 Etri… Male   red       Demon No Hair       193 DC Comics yellow     neutral  
##  6 Glad… Male   blue      Stro… Blue          198 Marvel C… purple     neutral  
##  7 Gori… Male   yellow    Gori… Black         198 DC Comics <NA>       bad      
##  8 Hela  Female green     Asga… Black         213 Marvel C… <NA>       bad      
##  9 Hype… Male   blue      Eter… Red           183 Marvel C… <NA>       good     
## 10 King… Male   blue      Human No Hair       201 Marvel C… <NA>       bad      
## # … with 13 more rows, and 1 more variable: weight <dbl>
```
…
